<svg xmlns:rdf="http://www.w3.org/1999/02/22-rdf-syntax-ns#" xmlns="http://www.w3.org/2000/svg" height="512" width="512" version="1.1" xmlns:cc="http://creativecommons.org/ns#" xmlns:dc="http://purl.org/dc/elements/1.1/" viewBox="0 0 511.99999 511.99999">
	<g transform="translate(0 -540.36)">
		<path d="m239 936.78c-54.33-4.64-94.95-17.18-137.43-42.42-36.533-21.7-65.975-49.04-93.416-86.75l-8.1877-11.25 8.1877-11.25c32.336-44.43 67.814-74.92 113.85-97.84 43.363-21.589 84.758-31.24 134-31.24 48.05 0 89.085 9.3317 131.5 29.904 46.313 22.464 83.731 54.36 116.36 99.187l8.1984 11.265-8.2166 11.235c-16.681 22.81-32.258 40.023-50.338 55.627-45.586 39.342-101.34 64.192-160.64 71.6-12.104 1.512-44.951 2.6858-53.859 1.9248zm41.144-55.472c47.36-4.84 93-23.58 130.86-53.76 9.3256-7.4335 32-29.541 32-31.2 0-0.46435-5.0625-5.9388-11.25-12.166-20.535-20.665-41.326-35.603-67.542-48.528-8.4107-4.1466-15.477-7.3542-15.703-7.1281-0.22614 0.22614 0.67076 3.3918 1.9931 7.0349 8.2678 22.777 7.0712 52.717-2.976 74.463-12.934 27.993-36.851 48.213-66.314 56.064-8.4572 2.2534-11.705 2.5866-25.208 2.5866s-16.751-0.33326-25.208-2.5866c-29.195-7.779-53.047-27.741-65.841-55.104-10.526-22.512-11.883-52.187-3.4489-75.422 1.3224-3.6431 2.2193-6.8088 1.9931-7.0349-0.22614-0.22614-7.2926 2.9815-15.703 7.1281-26.21 12.92-47 27.86-67.54 48.52-6.188 6.23-11.25 11.72-11.25 12.21 0 1.6767 22.48 23.56 32 31.15 37.235 29.687 83.595 48.917 129.5 53.716 11.783 1.2317 37.784 1.2557 49.644 0.0458zm36.895-98.549c8.8686-4.807 13.809-13.356 13.809-23.894 0-10.555-4.9178-19.041-13.909-24-4.7785-2.6355-6.4112-2.9983-13.439-2.986-9.2101 0.0161-12.605 1.3931-19.26 7.8124-4.9 4.72-8.24 12.5-8.24 19.17 0 11.463 8.5656 22.893 19.942 26.612 5.1611 1.6869 15.406 0.36726 21.097-2.7174z"/>
	</g>
</svg>
