<svg xmlns:rdf="http://www.w3.org/1999/02/22-rdf-syntax-ns#" xmlns="http://www.w3.org/2000/svg" height="512" width="512" version="1.1" xmlns:cc="http://creativecommons.org/ns#" xmlns:dc="http://purl.org/dc/elements/1.1/" viewBox="0 0 511.99999 511.99999">
	<g transform="translate(0 -540.36)">
		<path d="m25.776 987.89c-10.005-2.77-18.786-10.13-23.096-19.36l-2.18-4.67v-148-148l2.1609-4.6757c3.189-6.89 9.9281-13.69 16.839-16.97 5.5864-2.6521 6.849-2.8485 18.316-2.8492 6.7737-0.00043 13.14-0.442 14.148-0.98125 1.0076-0.53926 4.6676-5.5686 8.1334-11.176 8.0295-12.992 16.237-21.844 23.152-24.97 5.2265-2.3625 5.4252-2.3735 42.751-2.3735h37.5l6.815 3.2279c8.1503 3.8604 15.673 11.193 20.685 20.163 1.925 3.4449 4.85 8.3663 6.5 10.936l3 4.6731 120 0.5 120 0.5 4.6928 2.3115c6.2298 3.0686 12.116 8.9227 15.488 15.404 2.5017 4.808 2.7841 6.4562 3.133 18.284 0.21092 7.15 0.84416 13.562 1.4072 14.25 0.74332 0.90763 5.5183 1.25 17.433 1.25 11.597 0 17.367 0.40003 19.674 1.364 4.2823 1.7893 8.4266 6.8151 9.2532 11.222 0.47118 2.5116-5.8645 40.287-22.008 131.22-12.468 70.232-23.319 130-24.112 132.81-1.6557 5.8787-6.8951 11.889-13.005 14.919-3.8903 1.9291-7.4838 1.965-212.96 2.1275-169.23 0.13387-209.9-0.083-213.72-1.1398zm19.738-178.5c9.2232-51.959 17.199-96.059 17.724-98 1.2932-4.7804 10.052-13.21 15.378-14.8 3.1878-0.95184 43.956-1.229 180.77-1.229h176.66l0.97525-2.5651c1.3215-3.4758 1.2338-14.395-0.14747-18.357-0.65076-1.8668-2.1494-3.611-3.5651-4.1492-1.4525-0.55223-50.342-0.93255-120.63-0.93836l-118.18-0.01-5.0203-2.3378c-6.5693-3.0592-12.772-10.13-18.931-21.583-2.7234-5.0637-6.4516-10.524-8.2848-12.133l-3.3332-2.9263-31.215 0.004c-29.282 0.004-31.415 0.12563-34.443 1.9716-2.0144 1.2282-6.4368 6.8502-11.766 14.958-12.801 19.475-17.015 22.011-36.621 22.045-11.229 0.0196-12.905 0.24973-15.25 2.0945l-2.63 2.08v116.12c0 66.129 0.3755 115.72 0.87215 115.18 0.47968-0.5225 8.4184-43.462 17.642-95.421z"/>
	</g>
</svg>
