<svg xmlns:rdf="http://www.w3.org/1999/02/22-rdf-syntax-ns#" xmlns="http://www.w3.org/2000/svg" height="512" width="512" version="1.1" xmlns:cc="http://creativecommons.org/ns#" xmlns:dc="http://purl.org/dc/elements/1.1/" viewBox="0 0 512.00001 512.00001">
	<g transform="translate(0 -540.36)">
		<path d="m4.3154 1017.4c-1.2015-0.4867-2.664-1.7807-3.25-2.8756-0.73937-1.4-1.0654-45.04-1.0654-142.62v-140.61l2.4545-2.4545 2.4545-2.4546h162.59 162.59l2.4545 2.4546 2.4546 2.4545v140.93c0 137.27-0.0497 141-1.9116 143.3l-1.9116 2.3608-162.34 0.1913c-92.338 0.1-163.27-0.2-164.51-0.7zm79.621-92.79c7.8292-27.267 19.474-56.702 28.584-72.25 6.3312-10.806 16.493-21.324 22.275-23.057 6.7955-2.036 11.411-0.11644 19.324 8.0367 17.913 18.456 34.636 52.662 45.231 92.52l2.3924 9 1.1975-4.5c2.2812-8.5722 7.9935-24.604 11.538-32.382 11.633-25.526 26.663-35.397 40.151-26.368 8.876 5.9421 18.317 22.19 29.362 50.532l5.151 13.218h10.429 10.429v-91-91h-139.5-139.5v91 91h24.35 24.35l4.2351-14.75zm-13.841-106.42c-3.2518-0.74103-5.7715-2.3706-9.6267-6.2258-6.3559-6.3559-8.1601-12.276-6.3348-20.788 1.5874-7.4017 9.276-15.09 16.678-16.678 8.4951-1.8219 14.434-0.0188 20.754 6.3009 4.1897 4.1897 5.4024 6.1868 6.3009 10.377 1.6157 7.534 0.01014 13.911-4.9095 19.5-6.1604 6.9986-13.923 9.5498-22.861 7.513zm181.4-5.01c-2.2-0.52274-11.2-1.062-20-1.1983-13.177-0.20411-17.125-0.62216-22.377-2.3693-10.612-3.5303-14.836-9.5393-10.061-14.314 2.5113-2.5113 9.5125-5.6049 14.647-6.4722 6.1693-1.042 7.2906-1.5203 7.2906-3.1099 0-0.83025 1.3154-2.8249 2.9231-4.4326 2.6245-2.6245 3.5693-2.9198 9.25-2.8913 3.7192 0.0187 7.0604 0.58824 8.1064 1.3818 1.4996 1.1377 2.5808 1.1152 6.8733-0.14315 3.508-1.0283 8.1011-1.3724 14.754-1.1052 8.0285 0.32246 10.614 0.85475 15.308 3.1514 7.8136 3.8228 11.786 8.5328 11.781 13.968-0.002 2.401-0.83596 5.5801-1.9373 7.3863-5.0674 8.3106-23.158 13.333-36.559 10.148zm117.25 157.36-13.75-6.6334v-43.272c0-23.8 0.16893-43.272 0.3754-43.272s9.9087 4.5284 21.56 10.063c11.652 5.5348 21.637 9.9125 22.189 9.7284 1.4731-0.49103 78.984-163.1 78.113-163.87-0.6-0.53-246.23-118.08-249.74-119.52-0.55-0.22518-11.35 21.404-24 48.064l-23 48.474-17.285 0.0248c-16.147 0.0232-17.225-0.0904-16.372-1.7252 0.50209-0.9625 14.744-30.775 31.648-66.25s31.338-65.138 32.075-65.917c0.73666-0.77916 2.5983-1.4166 4.137-1.4164 3.2631 0.00029 291.62 137.4 295.05 140.59 1.2375 1.1504 2.25 2.8793 2.25 3.842 0 2.5908-120.79 255.19-122.73 256.65-2.8947 2.1848-6.438 1.2227-20.524-5.5728z"/>
	</g>
</svg>
