<?xml version="1.0" encoding="utf-8"?>
<!-- Generator: Adobe Illustrator 21.0.0, SVG Export Plug-In . SVG Version: 6.00 Build 0)  -->
<svg version="1.1" id="Capa_1" xmlns="http://www.w3.org/2000/svg" xmlns:xlink="http://www.w3.org/1999/xlink" x="0px" y="0px"
	 viewBox="0 0 512 512" style="enable-background:new 0 0 512 512;" xml:space="preserve">
<g>
	<path d="M475,449.8H37c-17.6,0-32-14.4-32-32V94.3c0-17.6,14.4-32,32-32h438c17.6,0,32,14.4,32,32v323.5
		C507,435.4,492.6,449.8,475,449.8z M45,409.8h422V102.3H45V409.8z"/>
</g>
<g>
	<path d="M475,266H231c-6.6,0-12-5.4-12-12V94.3c0-6.6,5.4-12,12-12h244c6.6,0,12,5.4,12,12V254C487,260.6,481.6,266,475,266z"/>
</g>
</svg>
